<?xml version="1.0" encoding="utf-8"?>
<!-- Generator: Adobe Illustrator 24.0.3, SVG Export Plug-In . SVG Version: 6.00 Build 0)  -->
<svg version="1.1" id="Layer_1" xmlns="http://www.w3.org/2000/svg" xmlns:xlink="http://www.w3.org/1999/xlink" x="0px" y="0px"
	 viewBox="0 0 595.28 32.09" style="enable-background:new 0 0 595.28 32.09;" xml:space="preserve">
<style type="text/css">
	.st0{fill:#2751A4;}
	.st1{fill:#0D1B3A;}
	.st2{fill:#FFFFFF;}
</style>
<g id="Layer_1_1_">
	<rect x="44.44" y="25.9" class="st0" width="33.67" height="6"/>
	<g>
		<g>
			<rect x="370.25" y="10.58" class="st1" width="224.39" height="21.46"/>
			<polygon class="st0" points="-0.64,-0.06 372.45,-0.06 389.78,31.93 -0.64,31.93 			"/>
		</g>
		<g>
			<path class="st2" d="M50.43,18.81c-0.61,0.85-1.42,1.25-2.58,1.25h-3.08v-8.54h3.08c1.16,0,1.97,0.4,2.58,1.25
				c0.53,0.73,0.54,1.61,0.54,3.02S50.96,18.08,50.43,18.81z M48.96,13.53C48.68,13.18,48.28,13,47.71,13h-1.27v5.56h1.27
				c0.56,0,0.97-0.18,1.25-0.53c0.31-0.37,0.35-0.91,0.35-2.25C49.31,14.45,49.27,13.91,48.96,13.53z"/>
			<path class="st2" d="M52.54,12.74v-1.27h1.59v1.27H52.54z M52.56,20.06v-6.07h1.56v6.07H52.56z"/>
			<path class="st2" d="M58.02,22.42c-0.96,0-1.62-0.19-2.27-0.82l0.97-0.98c0.35,0.34,0.7,0.48,1.22,0.48
				c0.94,0,1.26-0.66,1.26-1.29v-0.64c-0.41,0.46-0.88,0.62-1.49,0.62s-1.14-0.2-1.49-0.55c-0.59-0.59-0.64-1.39-0.64-2.48
				c0-1.09,0.05-1.88,0.64-2.47c0.35-0.35,0.89-0.55,1.5-0.55c0.66,0,1.09,0.18,1.52,0.66v-0.59h1.51v6.02
				C60.77,21.33,59.7,22.42,58.02,22.42z M58.17,15.14c-0.92,0-1.02,0.79-1.02,1.62c0,0.83,0.1,1.63,1.02,1.63
				c0.92,0,1.03-0.8,1.03-1.63C59.21,15.93,59.1,15.14,58.17,15.14z"/>
			<path class="st2" d="M62.5,12.74v-1.27h1.59v1.27H62.5z M62.52,20.06v-6.07h1.56v6.07H62.52z"/>
			<path class="st2" d="M67.77,20.06c-1.27,0-1.81-0.9-1.81-1.79v-3.09H65.3v-1.19h0.66v-1.85h1.56v1.85h1.1v1.19h-1.1v3
				c0,0.36,0.17,0.56,0.54,0.56h0.56v1.32H67.77z"/>
			<path class="st2" d="M73.19,20.06v-0.54c-0.42,0.42-0.82,0.6-1.54,0.6c-0.71,0-1.24-0.19-1.6-0.55c-0.34-0.35-0.52-0.85-0.52-1.4
				c0-1,0.68-1.81,2.16-1.81h1.45v-0.32c0-0.68-0.34-0.98-1.16-0.98c-0.56,0-0.86,0.16-1.2,0.54l-0.98-0.97
				c0.61-0.67,1.2-0.89,2.24-0.89c1.76,0,2.66,0.74,2.66,2.21v4.11H73.19z M73.15,17.42h-1.19c-0.62,0-0.92,0.25-0.92,0.72
				c0,0.43,0.3,0.71,0.95,0.71c0.38,0,0.66-0.05,0.92-0.3c0.18-0.16,0.24-0.4,0.24-0.79C73.15,17.76,73.15,17.42,73.15,17.42z"/>
			<path class="st2" d="M78.15,20.06c-1.28,0-1.82-0.9-1.82-1.79v-6.75h1.56v6.66c0,0.37,0.16,0.56,0.55,0.56h0.6v1.32H78.15z"/>
			<path class="st2" d="M88.34,19.23c-0.58,0.58-1.29,0.9-2.28,0.9s-1.72-0.32-2.29-0.9c-0.85-0.85-0.86-1.81-0.86-3.44
				s0.01-2.59,0.86-3.44c0.58-0.58,1.31-0.9,2.29-0.9s1.7,0.32,2.28,0.9c0.85,0.85,0.88,1.81,0.88,3.44S89.19,18.38,88.34,19.23z
				 M87.13,13.39c-0.24-0.28-0.61-0.46-1.07-0.46s-0.83,0.18-1.08,0.46c-0.31,0.36-0.41,0.77-0.41,2.4s0.1,2.03,0.41,2.39
				c0.25,0.28,0.62,0.47,1.08,0.47s0.83-0.19,1.07-0.47c0.31-0.36,0.42-0.76,0.42-2.39S87.44,13.75,87.13,13.39z"/>
			<path class="st2" d="M95.38,19.57c-0.35,0.36-0.9,0.56-1.51,0.56c-0.64,0-1.12-0.17-1.51-0.62v2.84H90.8v-8.54h1.51v0.59
				c0.43-0.48,0.89-0.66,1.56-0.66c0.61,0,1.16,0.2,1.51,0.56c0.6,0.61,0.65,1.58,0.65,2.63C96.03,17.97,95.98,18.96,95.38,19.57z
				 M93.42,15.14c-0.94,0-1.06,0.78-1.06,1.79c0,1.01,0.12,1.8,1.06,1.8s1.06-0.79,1.06-1.8C94.47,15.92,94.35,15.14,93.42,15.14z"
				/>
			<path class="st2" d="M99.48,20.06c-1.27,0-1.81-0.9-1.81-1.79v-3.09h-0.66v-1.19h0.66v-1.85h1.56v1.85h1.1v1.19h-1.1v3
				c0,0.36,0.17,0.56,0.54,0.56h0.56v1.32H99.48z"/>
			<path class="st2" d="M101.72,12.74v-1.27h1.59v1.27H101.72z M101.75,20.06v-6.07h1.56v6.07H101.75z"/>
			<path class="st2" d="M108.8,20.06l-1.54-2.6l-0.66,0.74v1.86h-1.56v-8.54h1.56v4.84l2.08-2.55h1.88l-2.23,2.52l2.4,3.73
				L108.8,20.06L108.8,20.06z"/>
			<path class="st2" d="M117.92,13.01v7.05h-1.67v-7.05h-2.23v-1.49h6.13v1.49H117.92z"/>
			<path class="st2" d="M121.65,17.42c0,0.82,0.48,1.39,1.37,1.39c0.68,0,1.02-0.2,1.42-0.59l0.95,0.92
				c-0.64,0.65-1.25,0.98-2.38,0.98c-1.48,0-2.89-0.67-2.89-3.2c0-2.04,1.1-3.19,2.72-3.19c1.74,0,2.72,1.25,2.72,3.02v0.66h-3.91
				V17.42z M123.89,15.68c-0.17-0.37-0.52-0.65-1.04-0.65s-0.88,0.28-1.04,0.65c-0.11,0.23-0.13,0.4-0.14,0.67h2.38
				C124.02,16.08,123.99,15.91,123.89,15.68z"/>
			<path class="st2" d="M130.76,20.06l-1.54-2.6l-0.66,0.74v1.86H127v-8.54h1.56v4.84l2.08-2.55h1.88l-2.23,2.52l2.4,3.73
				L130.76,20.06L130.76,20.06z"/>
			<path class="st2" d="M137.35,20.06v-3.78c0-0.85-0.54-1.14-1.03-1.14s-1.04,0.29-1.04,1.14v3.78h-1.56v-6.25h1.52v0.58
				c0.41-0.43,0.98-0.65,1.56-0.65c0.62,0,1.13,0.2,1.47,0.55c0.5,0.5,0.64,1.09,0.64,1.77v3.99h-1.56V20.06z"/>
			<path class="st2" d="M144.91,19.36c-0.4,0.41-1.02,0.77-1.94,0.77s-1.54-0.36-1.93-0.77c-0.56-0.6-0.71-1.31-0.71-2.43
				c0-1.13,0.14-1.82,0.71-2.42c0.4-0.41,1.01-0.77,1.93-0.77s1.55,0.35,1.94,0.77c0.56,0.6,0.71,1.29,0.71,2.42
				C145.62,18.06,145.48,18.78,144.91,19.36z M143.7,15.42c-0.18-0.18-0.42-0.28-0.73-0.28c-0.3,0-0.54,0.1-0.72,0.28
				c-0.32,0.31-0.36,0.88-0.36,1.51c0,0.65,0.04,1.21,0.36,1.52c0.18,0.18,0.42,0.28,0.72,0.28c0.31,0,0.55-0.1,0.73-0.28
				c0.32-0.31,0.36-0.88,0.36-1.52S144.02,15.73,143.7,15.42z"/>
			<path class="st2" d="M148.87,20.06c-1.28,0-1.82-0.9-1.82-1.79v-6.75h1.56v6.66c0,0.37,0.16,0.56,0.55,0.56h0.6v1.32H148.87z"/>
			<path class="st2" d="M155.21,19.36c-0.4,0.41-1.02,0.77-1.94,0.77s-1.54-0.36-1.93-0.77c-0.56-0.6-0.71-1.31-0.71-2.43
				c0-1.13,0.14-1.82,0.71-2.42c0.4-0.41,1.01-0.77,1.93-0.77s1.55,0.35,1.94,0.77c0.56,0.6,0.71,1.29,0.71,2.42
				C155.91,18.06,155.78,18.78,155.21,19.36z M153.99,15.42c-0.18-0.18-0.42-0.28-0.73-0.28c-0.3,0-0.54,0.1-0.72,0.28
				c-0.32,0.31-0.36,0.88-0.36,1.51c0,0.65,0.04,1.21,0.36,1.52c0.18,0.18,0.42,0.28,0.72,0.28c0.31,0,0.55-0.1,0.73-0.28
				c0.32-0.31,0.36-0.88,0.36-1.52S154.32,15.73,153.99,15.42z"/>
			<path class="st2" d="M159.56,22.42c-0.96,0-1.62-0.19-2.27-0.82l0.97-0.98c0.35,0.34,0.7,0.48,1.22,0.48
				c0.94,0,1.26-0.66,1.26-1.29v-0.64c-0.41,0.46-0.88,0.62-1.49,0.62s-1.14-0.2-1.49-0.55c-0.59-0.59-0.64-1.39-0.64-2.48
				c0-1.09,0.05-1.88,0.64-2.47c0.35-0.35,0.89-0.55,1.5-0.55c0.66,0,1.09,0.18,1.52,0.66v-0.59h1.51v6.02
				C162.31,21.33,161.24,22.42,159.56,22.42z M159.72,15.14c-0.92,0-1.02,0.79-1.02,1.62c0,0.83,0.1,1.63,1.02,1.63
				s1.03-0.8,1.03-1.63C160.75,15.93,160.64,15.14,159.72,15.14z"/>
			<path class="st2" d="M164.04,12.74v-1.27h1.59v1.27H164.04z M164.06,20.06v-6.07h1.56v6.07H164.06z"/>
		</g>
	</g>
</g>
<g id="Layer_2_1_">
</g>
</svg>
